<svg width="219" height="55" viewBox="0 0 219 55" fill="none" xmlns="http://www.w3.org/2000/svg">
<g clip-path="url(#clip0)">
<path d="M97.7336 23.7811C97.0087 23.7913 96.2896 23.6504 95.6206 23.3672C94.9957 23.1005 94.4337 22.7025 93.9716 22.1994C93.5012 21.685 93.1347 21.0822 92.8927 20.425C92.6286 19.6995 92.4978 18.9309 92.507 18.1575C92.499 17.3694 92.6296 16.5861 92.8927 15.8445C93.133 15.1679 93.4992 14.5443 93.9716 14.0078C94.4348 13.5046 94.9964 13.1049 95.6206 12.8343C96.2863 12.5382 97.0067 12.3894 97.7336 12.3978C98.4695 12.389 99.1991 12.5377 99.8745 12.8343C100.511 13.1104 101.082 13.52 101.551 14.0362C102.022 14.5708 102.386 15.1926 102.625 15.8672C102.883 16.6098 103.012 17.3926 103.005 18.1801C103.028 19.2657 102.765 20.338 102.245 21.2867C101.759 22.1457 101.028 22.8355 100.148 23.2652C100.193 23.526 100.238 23.7697 100.283 23.9965C100.325 24.2044 100.392 24.4063 100.484 24.5974C100.555 24.7565 100.66 24.8978 100.791 25.0112C100.925 25.1171 101.091 25.1713 101.261 25.1643C101.359 25.1718 101.458 25.1508 101.545 25.1036C101.632 25.0564 101.704 24.985 101.753 24.8978C101.852 24.6984 101.893 24.474 101.87 24.2516C101.849 23.9729 101.779 23.7004 101.663 23.4466C101.546 23.168 101.383 22.9113 101.183 22.687H102.446C102.728 22.9859 102.922 23.359 103.005 23.764C103.097 24.1515 103.097 24.5557 103.005 24.9432C102.914 25.309 102.72 25.64 102.446 25.8956C102.134 26.1626 101.736 26.3021 101.328 26.2867C100.988 26.2975 100.65 26.2235 100.344 26.0713C100.087 25.9324 99.8617 25.7391 99.6844 25.5044C99.5046 25.2505 99.3615 24.9718 99.2596 24.6767C99.1463 24.3619 99.0529 24.04 98.9801 23.713L98.4211 23.7924C98.1472 23.7697 97.946 23.7811 97.7336 23.7811ZM94.1672 18.1575C94.1483 19.034 94.3101 19.9048 94.6424 20.7142C94.9214 21.385 95.4054 21.9474 96.0231 22.3185C95.9308 21.9773 95.9005 21.6219 95.9336 21.2697C95.9666 20.9562 96.0637 20.653 96.2187 20.3797C96.3717 20.1242 96.5874 19.9132 96.8448 19.7674C97.1273 19.6111 97.4454 19.5329 97.7671 19.5407C98.0848 19.5287 98.4003 19.5989 98.6838 19.7448C98.9288 19.8815 99.1378 20.0759 99.2932 20.3117C99.464 20.5475 99.5961 20.8097 99.6844 21.0883C99.7824 21.3908 99.8608 21.6995 99.9192 22.0123C100.402 21.5919 100.765 21.0476 100.97 20.4364C101.213 19.7064 101.331 18.9393 101.317 18.1688C101.322 17.5246 101.245 16.8824 101.087 16.2584C100.952 15.7214 100.721 15.2142 100.406 14.7618C100.099 14.3366 99.6986 13.9907 99.2358 13.7522C98.7729 13.5137 98.2611 13.3894 97.742 13.3894C97.2228 13.3894 96.711 13.5137 96.2482 13.7522C95.7853 13.9907 95.3845 14.3366 95.0784 14.7618C94.7652 15.2073 94.5342 15.7067 94.3964 16.2357C94.2379 16.8634 94.1608 17.5095 94.1672 18.1575ZM97.7336 22.738C98.0659 22.7408 98.397 22.6969 98.7174 22.6076C98.6615 22.3411 98.6112 22.0917 98.5497 21.8536C98.5009 21.6398 98.4277 21.4324 98.3317 21.2357C98.2508 21.0731 98.1365 20.93 97.9963 20.8162C97.8575 20.7121 97.6882 20.6582 97.5156 20.6631C97.3493 20.6471 97.1834 20.6972 97.053 20.8031C96.9226 20.9089 96.8379 21.062 96.8168 21.23C96.7465 21.7245 96.8063 22.2291 96.9901 22.6926C97.1075 22.6926 97.2305 22.7266 97.3535 22.738C97.4764 22.7493 97.605 22.738 97.7336 22.738Z" fill="black"/>
<path d="M104.833 19.2346C104.725 19.0292 104.651 18.807 104.615 18.577C104.582 18.3746 104.566 18.1699 104.565 17.9648C104.559 17.5471 104.649 17.1338 104.827 16.7573C105.001 16.4074 105.249 16.1014 105.554 15.8616C105.888 15.6019 106.267 15.4094 106.672 15.2947C107.149 15.1628 107.642 15.098 108.137 15.102C108.63 15.0984 109.122 15.1574 109.601 15.2777C110.011 15.3787 110.393 15.5725 110.719 15.8446C111.039 16.1303 111.287 16.49 111.44 16.8934C111.62 17.4022 111.705 17.9404 111.692 18.4807V23.5827H110.188V22.5283C109.836 22.873 109.437 23.1651 109.003 23.3956C108.493 23.6603 107.927 23.7928 107.354 23.7811C107.04 23.7812 106.727 23.7469 106.42 23.6791C106.132 23.6182 105.858 23.4987 105.616 23.3276C105.382 23.1575 105.19 22.9342 105.057 22.6757C104.905 22.3723 104.832 22.0348 104.844 21.695C104.818 21.2338 104.94 20.7765 105.191 20.3911C105.424 20.0719 105.729 19.8134 106.08 19.6371C106.484 19.4412 106.913 19.302 107.354 19.2233L108.796 18.9569L110.21 18.7131V18.3333C110.268 17.6952 110.08 17.0592 109.685 16.5589C109.47 16.3602 109.217 16.2076 108.943 16.1102C108.668 16.0128 108.377 15.9726 108.086 15.992C107.56 15.9632 107.043 16.1419 106.644 16.4909C106.449 16.6862 106.298 16.9222 106.201 17.1826C106.105 17.4429 106.065 17.7214 106.085 17.9988C106.092 18.4217 106.201 18.8365 106.404 19.2063L104.833 19.2346ZM106.404 21.5476C106.389 21.7188 106.417 21.8912 106.487 22.048C106.556 22.2049 106.664 22.341 106.801 22.4433C107.07 22.6201 107.385 22.7109 107.706 22.704C107.968 22.7055 108.23 22.6711 108.483 22.602C108.717 22.5364 108.943 22.4471 109.16 22.3355C109.364 22.2344 109.56 22.1169 109.746 21.9841C109.91 21.8666 110.065 21.7378 110.21 21.5986V19.5578L108.768 19.7789C108.115 19.8384 107.485 20.054 106.929 20.4081C106.758 20.5411 106.62 20.7142 106.529 20.9126C106.437 21.1109 106.394 21.3288 106.404 21.5476Z" fill="black"/>
<path d="M114.167 16.2358H112.742L115.676 12.8345V15.2494H119.002V16.2358H115.676V20.8957C115.64 21.3841 115.745 21.8726 115.978 22.3016C116.095 22.4576 116.249 22.5804 116.427 22.6578C116.604 22.7353 116.798 22.7649 116.99 22.7438C117.239 22.7501 117.487 22.6957 117.711 22.585C117.915 22.4804 118.075 22.3056 118.164 22.0918C118.264 21.8286 118.293 21.5427 118.248 21.2642C118.19 20.8516 118.071 20.4503 117.895 20.0737H119.321C119.555 20.5697 119.661 21.1178 119.628 21.6667C119.597 22.0905 119.446 22.4961 119.192 22.8345C118.944 23.1548 118.616 23.4015 118.242 23.5488C117.86 23.7055 117.452 23.7863 117.04 23.7869C116.272 23.8406 115.512 23.6044 114.905 23.1236C114.641 22.848 114.438 22.5181 114.311 22.1562C114.184 21.7943 114.135 21.4089 114.167 21.0261V16.2358Z" fill="black"/>
<path d="M120.938 19.2346C120.829 19.0295 120.753 18.8073 120.715 18.577C120.687 18.3742 120.672 18.1696 120.67 17.9648C120.662 17.5468 120.752 17.1328 120.933 16.7573C121.104 16.4062 121.353 16.0998 121.659 15.8616C121.993 15.6023 122.373 15.41 122.777 15.2947C123.257 15.1628 123.751 15.098 124.248 15.102C124.741 15.0987 125.233 15.1578 125.712 15.2777C126.122 15.3796 126.504 15.5733 126.83 15.8446C127.154 16.1271 127.402 16.4878 127.551 16.8934C127.733 17.4017 127.82 17.94 127.808 18.4807V23.5827H126.333V22.5283C125.971 22.8771 125.56 23.1694 125.114 23.3956C124.604 23.6603 124.038 23.7928 123.465 23.7811C123.151 23.7817 122.838 23.7475 122.531 23.6791C122.241 23.6176 121.965 23.4982 121.721 23.3276C121.488 23.156 121.297 22.9331 121.162 22.6757C121.013 22.3713 120.94 22.0346 120.95 21.695C120.926 21.2341 121.048 20.7776 121.296 20.3911C121.53 20.0723 121.834 19.814 122.185 19.6371C122.589 19.4412 123.018 19.302 123.459 19.2233L124.902 18.9569L126.31 18.7131V18.3333C126.37 17.6959 126.183 17.06 125.79 16.5589C125.574 16.3601 125.321 16.2074 125.045 16.11C124.769 16.0126 124.477 15.9725 124.186 15.992C123.66 15.9632 123.143 16.1419 122.744 16.4909C122.55 16.6869 122.399 16.923 122.303 17.1832C122.206 17.4433 122.166 17.7215 122.185 17.9988C122.192 18.4209 122.3 18.8351 122.498 19.2063L120.938 19.2346ZM122.509 21.5476C122.492 21.719 122.52 21.8919 122.59 22.0491C122.659 22.2062 122.768 22.3421 122.906 22.4433C123.174 22.6193 123.487 22.7101 123.806 22.704C124.068 22.7058 124.33 22.6715 124.583 22.602C124.818 22.5364 125.047 22.4471 125.265 22.3355C125.46 22.2331 125.647 22.1156 125.824 21.9841C125.986 21.8681 126.14 21.7392 126.282 21.5986V19.5578L124.84 19.7789C124.187 19.8394 123.557 20.055 123.001 20.4081C122.836 20.5453 122.706 20.72 122.62 20.918C122.535 21.1161 122.497 21.3318 122.509 21.5476Z" fill="black"/>
<path d="M129.797 15.2663H131.301V16.3264C131.648 15.9702 132.046 15.6684 132.481 15.4307C132.909 15.2074 133.385 15.0945 133.867 15.1019C134.187 15.0986 134.503 15.1787 134.784 15.3343C135.063 15.4977 135.286 15.7453 135.421 16.043C135.576 16.4211 135.641 16.8308 135.611 17.2391C135.56 17.8242 135.42 18.3978 135.197 18.9398H133.598C133.949 18.3221 134.1 17.6082 134.029 16.899C133.976 16.6829 133.845 16.495 133.661 16.3722C133.478 16.2494 133.256 16.2007 133.039 16.2357C132.734 16.2384 132.433 16.3203 132.167 16.4738C131.829 16.6835 131.529 16.95 131.279 17.2618V23.6053H129.797V15.2663Z" fill="black"/>
<path d="M144.298 12.5339H146.008L150.48 23.6224H148.803L147.473 20.3457H142.593L141.38 23.6054H140.1L144.298 12.5339ZM143.046 19.2176H147.059L145.382 15.085L144.969 14.0249L144.622 15.0396L143.046 19.2176Z" fill="black"/>
<path d="M151.765 15.2664H153.269V16.3265C153.612 15.9728 154.003 15.6711 154.432 15.4308C154.86 15.2088 155.336 15.096 155.818 15.102C156.14 15.098 156.457 15.1781 156.74 15.3345C157.02 15.4966 157.241 15.7448 157.372 16.0431C157.532 16.4196 157.597 16.8307 157.562 17.2392C157.516 17.8245 157.378 18.3987 157.154 18.9399H155.566C155.915 18.3215 156.066 17.6082 155.997 16.8991C155.944 16.6875 155.816 16.503 155.638 16.3807C155.459 16.2584 155.243 16.2069 155.03 16.2358C154.724 16.2385 154.424 16.3205 154.158 16.4739C153.819 16.6836 153.519 16.9501 153.269 17.2619V23.6054H151.765V15.2664Z" fill="black"/>
<path d="M158.927 19.2347C158.816 19.0303 158.742 18.8077 158.709 18.5771C158.676 18.3746 158.659 18.1699 158.658 17.9648C158.653 17.5471 158.743 17.1338 158.921 16.7573C159.093 16.4063 159.341 16.0998 159.648 15.8617C159.981 15.6019 160.361 15.4095 160.766 15.2948C161.243 15.1625 161.736 15.0976 162.23 15.102C162.724 15.0984 163.216 15.1574 163.695 15.2778C164.105 15.3787 164.487 15.5725 164.813 15.8446C165.136 16.1272 165.384 16.4879 165.534 16.8934C165.719 17.4011 165.806 17.9398 165.791 18.4807V23.5827H164.282V22.5283C163.92 22.8771 163.51 23.1694 163.063 23.3957C162.553 23.6604 161.987 23.7928 161.414 23.7812C161.1 23.7815 160.787 23.7472 160.481 23.6791C160.19 23.6177 159.915 23.4982 159.67 23.3276C159.437 23.1563 159.246 22.9333 159.111 22.6757C158.958 22.3729 158.883 22.0354 158.893 21.695C158.869 21.2332 158.992 20.7758 159.245 20.3911C159.49 20.067 159.808 19.8081 160.173 19.6372C160.578 19.4412 161.006 19.302 161.448 19.2233L162.89 18.9569L164.299 18.7131V18.3333C164.358 17.6959 164.172 17.06 163.779 16.5589C163.563 16.3601 163.309 16.2074 163.034 16.11C162.758 16.0126 162.466 15.9725 162.175 15.992C161.649 15.9656 161.133 16.144 160.732 16.4909C160.538 16.6869 160.388 16.923 160.291 17.1832C160.195 17.4434 160.154 17.7215 160.173 17.9988C160.18 18.4218 160.29 18.8365 160.492 19.2063L158.927 19.2347ZM160.498 21.5476C160.481 21.719 160.509 21.8919 160.578 22.0491C160.648 22.2062 160.757 22.3421 160.894 22.4433C161.162 22.6193 161.475 22.7101 161.794 22.7041C162.057 22.7062 162.318 22.6718 162.571 22.602C162.807 22.5364 163.035 22.4472 163.253 22.3356C163.458 22.2345 163.654 22.1169 163.84 21.9841C164.003 21.8681 164.156 21.7392 164.299 21.5986V19.5578L162.856 19.7789C162.203 19.8394 161.573 20.055 161.017 20.4081C160.848 20.5424 160.712 20.7158 160.621 20.914C160.531 21.1122 160.489 21.3294 160.498 21.5476Z" fill="black"/>
<path d="M167.786 11.4058H169.289V16.2357C169.593 15.8895 169.964 15.6115 170.379 15.4194C170.872 15.1849 171.411 15.0685 171.956 15.0792C172.458 15.072 172.955 15.1781 173.411 15.3899C173.867 15.6017 174.271 15.9139 174.594 16.3037C174.926 16.7112 175.184 17.1759 175.354 17.6756C175.545 18.2373 175.639 18.8277 175.634 19.4216C175.64 20.0142 175.544 20.6033 175.349 21.162C175.172 21.6666 174.905 22.1336 174.561 22.5395C174.238 22.9178 173.842 23.2246 173.398 23.4409C172.951 23.6516 172.465 23.7599 171.972 23.7584C171.444 23.7693 170.917 23.6828 170.418 23.5033C169.999 23.3454 169.618 23.0979 169.3 22.7776V23.6053H167.797L167.786 11.4058ZM171.497 22.772C171.884 22.78 172.267 22.6945 172.615 22.5225C172.932 22.3597 173.206 22.1226 173.415 21.8309C173.636 21.5118 173.799 21.1545 173.895 20.7765C174.011 20.3422 174.067 19.894 174.063 19.4443C174.067 19.0021 174.01 18.5614 173.895 18.1348C173.798 17.7589 173.635 17.4037 173.415 17.086C173.206 16.7964 172.932 16.5614 172.615 16.4001C172.268 16.2253 171.884 16.1397 171.497 16.1507C171.009 16.1268 170.523 16.2406 170.094 16.4795C169.792 16.6539 169.52 16.878 169.289 17.1427V21.6779C169.527 21.9972 169.823 22.2668 170.161 22.4715C170.573 22.6883 171.034 22.7919 171.497 22.772Z" fill="black"/>
<path d="M179.022 12.2677C179.029 12.404 179.006 12.54 178.957 12.667C178.908 12.794 178.833 12.9091 178.737 13.0047C178.551 13.1848 178.301 13.2827 178.044 13.2768C177.914 13.2813 177.784 13.2596 177.662 13.2129C177.54 13.1662 177.429 13.0954 177.334 13.0047C177.241 12.9077 177.168 12.7921 177.121 12.6653C177.074 12.5384 177.053 12.4031 177.06 12.2677C177.056 12.1356 177.079 12.0041 177.127 11.8813C177.175 11.7585 177.248 11.6469 177.34 11.5535C177.432 11.46 177.542 11.3867 177.663 11.3379C177.784 11.2892 177.914 11.266 178.044 11.27C178.173 11.2692 178.301 11.2945 178.421 11.3445C178.54 11.3944 178.648 11.468 178.739 11.5608C178.83 11.6537 178.902 11.7641 178.951 11.8854C178.999 12.0068 179.024 12.1367 179.022 12.2677ZM177.295 15.2892H178.804V23.6056H177.295V15.2892Z" fill="black"/>
<path d="M186.344 18.7529C186.463 18.4243 186.516 18.0746 186.498 17.7249C186.481 17.3752 186.394 17.0327 186.243 16.7178C186.048 16.4637 185.79 16.2658 185.496 16.1435C185.202 16.0212 184.882 15.9788 184.566 16.0205C184.207 16.0076 183.849 16.0846 183.525 16.2448C183.202 16.4049 182.922 16.6433 182.711 16.9389C182.212 17.7025 181.973 18.61 182.029 19.5239C182.018 20.0296 182.083 20.5339 182.219 21.0205C182.327 21.3983 182.507 21.7509 182.75 22.0579C182.968 22.3234 183.246 22.5315 183.56 22.6645C183.878 22.8027 184.221 22.8722 184.566 22.8686C184.855 22.9038 185.147 22.8535 185.408 22.7237C185.669 22.5939 185.887 22.3902 186.037 22.1373C186.165 21.8219 186.228 21.4834 186.224 21.1423C186.219 20.8012 186.146 20.4647 186.009 20.1532H187.641C187.774 20.6617 187.798 21.1931 187.714 21.7121C187.631 22.134 187.438 22.5257 187.155 22.8459C186.855 23.1628 186.485 23.402 186.076 23.5432C185.586 23.7095 185.072 23.79 184.555 23.7813C183.993 23.7864 183.434 23.6885 182.906 23.4922C182.414 23.312 181.967 23.0235 181.598 22.6475C181.236 22.2716 180.951 21.8265 180.76 21.338C180.544 20.7683 180.438 20.1623 180.447 19.5522C180.438 18.9269 180.546 18.3056 180.765 17.7212C180.963 17.1849 181.272 16.6978 181.671 16.2926C182.049 15.9052 182.505 15.6037 183.007 15.4083C183.543 15.2026 184.111 15.0988 184.684 15.1021C185.218 15.0962 185.749 15.1726 186.26 15.3289C186.681 15.4611 187.065 15.6944 187.378 16.0092C187.679 16.3222 187.887 16.7153 187.976 17.1429C188.073 17.6736 188.054 18.2193 187.92 18.7416L186.344 18.7529Z" fill="black"/>
<path d="M92.9818 28.9568H94.5637V38.9114H100.204V40.0452H92.9818V28.9568Z" fill="black"/>
<path d="M101.428 35.6576C101.319 35.4521 101.244 35.23 101.204 35.0001C101.179 34.7933 101.169 34.5848 101.177 34.3765C101.168 33.9592 101.256 33.5457 101.434 33.169C101.61 32.8181 101.86 32.5105 102.166 32.2676C102.501 32.0103 102.88 31.8181 103.284 31.7007C103.761 31.5688 104.254 31.504 104.748 31.508C105.244 31.5044 105.738 31.5634 106.219 31.6837C106.628 31.7877 107.009 31.9812 107.337 32.2506C107.659 32.5363 107.907 32.8986 108.058 33.305C108.237 33.812 108.322 34.3482 108.309 34.8867V39.9887H106.806V38.9513C106.443 39.2991 106.033 39.5913 105.587 39.8186C105.077 40.0827 104.51 40.2151 103.938 40.2041C103.622 40.2044 103.307 40.1702 102.999 40.1021C102.71 40.0399 102.437 39.9205 102.194 39.7506C101.961 39.579 101.77 39.3561 101.635 39.0987C101.486 38.7942 101.413 38.4575 101.422 38.118C101.399 37.6571 101.52 37.2006 101.769 36.8141C102.007 36.4994 102.316 36.2468 102.669 36.0771C103.075 35.8813 103.506 35.7421 103.949 35.6633L105.391 35.3969L106.8 35.1531V34.7846C106.861 34.1462 106.672 33.5091 106.274 33.0103C106.06 32.8099 105.808 32.6562 105.533 32.5587C105.258 32.4612 104.966 32.4219 104.676 32.4434C104.15 32.4145 103.633 32.5933 103.234 32.9422C103.039 33.1383 102.889 33.3744 102.792 33.6345C102.696 33.8947 102.656 34.1729 102.675 34.4502C102.682 34.8723 102.789 35.2865 102.988 35.6576H101.428ZM102.993 37.9706C102.978 38.1418 103.007 38.3142 103.076 38.471C103.146 38.6279 103.254 38.764 103.39 38.8663C103.66 39.0424 103.975 39.1332 104.296 39.127C104.564 39.13 104.831 39.0957 105.089 39.025C105.325 38.9584 105.553 38.8692 105.771 38.7586C105.975 38.6553 106.171 38.5379 106.358 38.4071C106.52 38.2896 106.673 38.1608 106.817 38.0216V35.9808L105.374 36.2019C104.721 36.2614 104.091 36.477 103.535 36.8311C103.362 36.9633 103.222 37.1357 103.128 37.334C103.033 37.5322 102.987 37.7505 102.993 37.9706Z" fill="black"/>
<path d="M110.288 31.6893H111.797V32.6757C112.18 32.3791 112.594 32.1262 113.032 31.9218C113.295 31.8022 113.566 31.7018 113.843 31.6213C114.127 31.5421 114.42 31.5021 114.715 31.5023C115.063 31.4612 115.415 31.5063 115.743 31.6337C116.07 31.761 116.361 31.9669 116.593 32.2336C116.969 32.8476 117.148 33.5643 117.107 34.2857V40.0453H115.598V34.8072C115.601 34.4807 115.577 34.1546 115.525 33.8322C115.489 33.6016 115.401 33.3825 115.268 33.1916C115.149 33.0239 114.981 32.8989 114.787 32.8345C114.543 32.7616 114.288 32.7271 114.033 32.7324C113.594 32.7292 113.16 32.8281 112.764 33.0215C112.427 33.1731 112.108 33.3633 111.814 33.5884V40.0453H110.288V31.6893Z" fill="black"/>
<path d="M122.283 37.2789C122.047 37.2806 121.812 37.2617 121.579 37.2222C121.355 37.1892 121.135 37.1381 120.919 37.0691C120.835 37.1786 120.766 37.2986 120.713 37.4263C120.6 37.7723 120.6 38.1459 120.713 38.492C120.764 38.6288 120.836 38.7569 120.925 38.8718H122.921C123.465 38.8598 124.008 38.9324 124.53 39.0873C124.919 39.205 125.281 39.3974 125.598 39.6541C125.863 39.8718 126.069 40.1548 126.196 40.4761C126.313 40.7777 126.374 41.0987 126.375 41.4229C126.377 41.8335 126.291 42.2397 126.124 42.6133C125.951 42.9827 125.692 43.3037 125.369 43.5487C125.001 43.8338 124.581 44.0419 124.134 44.161C123.579 44.317 123.004 44.3915 122.429 44.382C121.446 44.4359 120.471 44.1848 119.634 43.6621C119.39 43.5015 119.181 43.2937 119.017 43.0507C118.853 42.8076 118.739 42.5342 118.679 42.246C118.62 41.9578 118.618 41.6606 118.672 41.3715C118.726 41.0823 118.837 40.807 118.996 40.5612C119.253 40.2161 119.591 39.9429 119.98 39.7675C119.807 39.5743 119.676 39.3464 119.595 39.0986C119.512 38.8639 119.471 38.6164 119.472 38.3673C119.469 38.049 119.539 37.7344 119.678 37.4489C119.824 37.1794 120.013 36.9361 120.237 36.729C119.837 36.4769 119.505 36.1283 119.27 35.7142C119.032 35.2938 118.91 34.8159 118.918 34.331C118.917 33.9393 119.001 33.5521 119.164 33.1972C119.33 32.8523 119.569 32.5485 119.863 32.3072C120.187 32.0555 120.552 31.8636 120.942 31.7403C121.385 31.598 121.847 31.5272 122.311 31.5306C122.669 31.5289 123.026 31.5727 123.373 31.6609C123.688 31.742 123.992 31.86 124.279 32.0124C124.627 31.7527 125.019 31.5606 125.436 31.4455C125.847 31.3304 126.272 31.2732 126.699 31.2755V32.5963H124.989C125.431 33.0719 125.67 33.7057 125.654 34.3594C125.66 34.7595 125.579 35.1562 125.418 35.5214C125.257 35.8867 125.019 36.2118 124.72 36.4739C124.411 36.7454 124.052 36.9533 123.664 37.0861C123.219 37.2325 122.751 37.2977 122.283 37.2789ZM122.473 43.4467C123.097 43.4724 123.715 43.3254 124.262 43.0215C124.49 42.8854 124.676 42.6876 124.8 42.4503C124.923 42.213 124.979 41.9456 124.961 41.678C124.96 41.4581 124.909 41.2414 124.812 41.0447C124.715 40.8481 124.575 40.6768 124.402 40.5442C123.927 40.1989 123.347 40.0343 122.764 40.0793H122.132C121.559 40.038 120.988 40.1872 120.506 40.5045C120.326 40.6407 120.181 40.8191 120.083 41.0244C119.986 41.2298 119.939 41.4559 119.947 41.6836C119.937 41.935 119.989 42.1848 120.097 42.4112C120.206 42.6375 120.367 42.8335 120.567 42.9818C121.137 43.3394 121.805 43.5023 122.473 43.4467ZM122.283 36.5022C122.544 36.5247 122.806 36.4851 123.048 36.3867C123.291 36.2883 123.507 36.1337 123.681 35.9353C124.014 35.4899 124.182 34.9402 124.156 34.382C124.176 33.8576 124.007 33.3438 123.681 32.9365C123.504 32.7421 123.287 32.5904 123.045 32.4923C122.804 32.3942 122.543 32.3522 122.283 32.3696C122.017 32.3511 121.751 32.3923 121.503 32.4903C121.254 32.5883 121.03 32.7406 120.847 32.9365C120.516 33.3417 120.345 33.8565 120.366 34.382C120.339 34.9413 120.51 35.4918 120.847 35.9353C121.031 36.1283 121.256 36.2769 121.505 36.3701C121.753 36.4633 122.019 36.4988 122.283 36.4739V36.5022Z" fill="black"/>
<path d="M134.717 40.0455H133.213V39.0307C133.063 39.1498 132.884 39.2745 132.654 39.4105C132.432 39.5519 132.2 39.6788 131.961 39.7904C131.698 39.9081 131.428 40.0066 131.151 40.0851C130.867 40.1644 130.573 40.2044 130.279 40.2042C129.931 40.2459 129.579 40.2017 129.252 40.0753C128.925 39.949 128.633 39.7442 128.401 39.4786C128.02 38.8684 127.838 38.1526 127.881 37.4321V31.6895H129.384V36.9276C129.379 37.2523 129.403 37.5768 129.457 37.8969C129.494 38.1284 129.579 38.3489 129.709 38.5432C129.831 38.7084 130.001 38.8311 130.195 38.8947C130.446 38.9749 130.709 39.0113 130.972 39.0024C131.411 39.0056 131.845 38.9067 132.241 38.7133C132.579 38.5528 132.898 38.353 133.191 38.118V31.6895H134.717V40.0455Z" fill="black"/>
<path d="M136.784 35.6576C136.674 35.4529 136.6 35.2304 136.566 35C136.534 34.7975 136.517 34.5928 136.516 34.3877C136.507 33.9817 136.592 33.5791 136.765 33.2127C136.938 32.8463 137.193 32.5264 137.511 32.2789C137.845 32.0211 138.225 31.8289 138.629 31.712C139.106 31.5797 139.599 31.5149 140.093 31.5192C140.587 31.5156 141.079 31.5747 141.558 31.695C141.968 31.7959 142.35 31.9897 142.676 32.2619C142.998 32.5476 143.246 32.9098 143.397 33.3163C143.589 33.836 143.678 34.3887 143.66 34.9433V40.0453H142.15V38.9512C141.789 39.3 141.378 39.5923 140.932 39.8186C140.422 40.0833 139.855 40.2157 139.283 40.2041C138.969 40.2041 138.656 40.1699 138.349 40.102C138.059 40.0406 137.783 39.9211 137.539 39.7505C137.306 39.5792 137.115 39.3562 136.98 39.0986C136.827 38.7955 136.752 38.4582 136.762 38.1179C136.737 37.6561 136.861 37.1987 137.114 36.814C137.355 36.4959 137.67 36.2428 138.031 36.0771C138.435 35.8812 138.864 35.7419 139.305 35.6632L140.747 35.3968L142.156 35.153V34.7846C142.215 34.1472 142.029 33.5113 141.636 33.0102C141.422 32.8104 141.169 32.6571 140.894 32.5596C140.619 32.4621 140.328 32.4225 140.037 32.4433C139.51 32.4159 138.992 32.5944 138.59 32.9422C138.395 33.1382 138.245 33.3743 138.148 33.6345C138.052 33.8946 138.012 34.1728 138.031 34.4501C138.037 34.873 138.147 35.2877 138.349 35.6576H136.784ZM138.355 37.9705C138.34 38.1418 138.368 38.3141 138.438 38.4709C138.507 38.6278 138.615 38.7639 138.752 38.8662C139.021 39.043 139.336 39.1338 139.657 39.127C139.918 39.1288 140.177 39.0944 140.429 39.0249C140.664 38.9603 140.893 38.871 141.111 38.7585C141.314 38.6552 141.51 38.5378 141.698 38.407C141.86 38.291 142.013 38.1621 142.156 38.0215V35.9807L140.714 36.2018C140.062 36.2622 139.434 36.4778 138.88 36.831C138.709 36.9641 138.571 37.1371 138.48 37.3355C138.388 37.5339 138.345 37.7517 138.355 37.9705Z" fill="black"/>
<path d="M148.847 37.279C148.607 37.2777 148.368 37.2549 148.131 37.2109C147.908 37.178 147.687 37.1268 147.472 37.0579C147.388 37.1673 147.318 37.2874 147.265 37.415C147.152 37.7611 147.152 38.1347 147.265 38.4808C147.316 38.6176 147.388 38.7456 147.477 38.8606H149.473C150.017 38.8486 150.56 38.9212 151.083 39.076C151.471 39.1937 151.834 39.3862 152.151 39.6429C152.416 39.8605 152.622 40.1436 152.749 40.4649C152.866 40.7664 152.927 41.0875 152.928 41.4116C152.93 41.8222 152.844 42.2284 152.676 42.6021C152.503 42.9714 152.244 43.2925 151.921 43.5375C151.554 43.8225 151.134 44.0306 150.686 44.1497C150.131 44.3058 149.557 44.3803 148.981 44.3708C147.999 44.4247 147.024 44.1736 146.186 43.6509C145.943 43.4902 145.733 43.2825 145.57 43.0394C145.406 42.7964 145.291 42.523 145.232 42.2348C145.173 41.9466 145.17 41.6494 145.225 41.3603C145.279 41.0711 145.389 40.7957 145.549 40.5499C145.805 40.2049 146.144 39.9317 146.533 39.7563C146.36 39.5631 146.228 39.3352 146.147 39.0874C146.065 38.8526 146.023 38.6052 146.024 38.3561C146.021 38.0377 146.092 37.7231 146.231 37.4377C146.377 37.1682 146.566 36.9249 146.79 36.7177C146.39 36.4657 146.058 36.1171 145.823 35.703C145.585 35.2826 145.463 34.8046 145.471 34.3198C145.469 33.9281 145.553 33.5409 145.717 33.186C145.881 32.8399 146.12 32.5357 146.415 32.296C146.739 32.0443 147.105 31.8524 147.494 31.7291C147.937 31.5867 148.399 31.5159 148.864 31.5193C149.549 31.5136 150.224 31.6791 150.831 32.0012C151.179 31.7415 151.572 31.5493 151.989 31.4343C152.4 31.3192 152.825 31.2619 153.252 31.2642V32.5851H151.541C151.984 33.0607 152.223 33.6944 152.207 34.3481C152.212 34.7483 152.132 35.1449 151.971 35.5102C151.809 35.8755 151.571 36.2006 151.273 36.4626C150.963 36.7341 150.604 36.9421 150.217 37.0749C149.775 37.2238 149.312 37.2928 148.847 37.279ZM149.037 43.4468C149.66 43.4725 150.279 43.3255 150.826 43.0216C151.053 42.8845 151.238 42.6865 151.361 42.4495C151.485 42.2125 151.541 41.9455 151.525 41.6781C151.524 41.4582 151.473 41.2415 151.376 41.0449C151.279 40.8482 151.138 40.6769 150.966 40.5443C150.49 40.199 149.911 40.0344 149.328 40.0794H148.69C148.119 40.0389 147.55 40.1881 147.069 40.5046C146.889 40.6408 146.744 40.8192 146.647 41.0245C146.55 41.2299 146.503 41.456 146.51 41.6837C146.501 41.9351 146.553 42.1849 146.661 42.4113C146.769 42.6376 146.931 42.8336 147.131 42.9819C147.701 43.3395 148.369 43.5024 149.037 43.4468ZM148.847 36.5023C149.106 36.5239 149.367 36.4839 149.609 36.3855C149.851 36.2871 150.066 36.133 150.239 35.9354C150.576 35.492 150.746 34.9414 150.72 34.3821C150.741 33.8566 150.569 33.3418 150.239 32.9366C150.064 32.7417 149.848 32.5895 149.607 32.4913C149.366 32.3931 149.106 32.3516 148.847 32.3697C148.581 32.3512 148.315 32.3924 148.066 32.4904C147.818 32.5884 147.594 32.7407 147.41 32.9366C147.08 33.3418 146.909 33.8566 146.93 34.3821C146.903 34.9414 147.073 35.492 147.41 35.9354C147.595 36.1285 147.82 36.277 148.068 36.3702C148.317 36.4634 148.583 36.4989 148.847 36.474V36.5023Z" fill="black"/>
<path d="M161.447 36.3321C161.619 36.8829 161.64 37.4707 161.509 38.0328C161.389 38.4936 161.143 38.9104 160.799 39.2346C160.441 39.563 160.015 39.8053 159.552 39.9432C159.053 40.1016 158.533 40.18 158.01 40.1757C157.415 40.1856 156.824 40.0857 156.265 39.8809C155.769 39.6973 155.317 39.4073 154.941 39.0305C154.572 38.6472 154.286 38.1895 154.102 37.687C153.899 37.1204 153.798 36.5212 153.806 35.9183C153.801 35.3156 153.901 34.7168 154.102 34.1496C154.286 33.6344 154.565 33.1593 154.924 32.7494C155.281 32.353 155.718 32.0381 156.204 31.8253C156.724 31.6029 157.283 31.491 157.847 31.4965C158.334 31.4966 158.817 31.5672 159.284 31.7063C159.733 31.841 160.148 32.0753 160.497 32.3922C160.864 32.7358 161.15 33.158 161.336 33.6281C161.563 34.224 161.671 34.86 161.654 35.4988V35.7879H155.399V35.9183C155.394 36.3749 155.446 36.8302 155.556 37.2732C155.649 37.6575 155.817 38.0196 156.047 38.3389C156.27 38.6344 156.562 38.8683 156.897 39.0192C157.284 39.1918 157.704 39.275 158.127 39.263C158.427 39.2623 158.725 39.2125 159.01 39.1156C159.289 39.0248 159.537 38.8557 159.726 38.6281C159.928 38.3632 160.048 38.0437 160.072 37.7097C160.103 37.2319 160.035 36.7528 159.871 36.3038L161.447 36.3321ZM157.898 32.4432C156.493 32.4432 155.679 33.2728 155.455 34.9319H160.1C160.075 34.5272 159.986 34.1292 159.837 33.7528C159.727 33.4647 159.558 33.2038 159.34 32.9875C159.15 32.8031 158.923 32.662 158.675 32.5736C158.425 32.4839 158.162 32.4397 157.898 32.4432Z" fill="black"/>
<path d="M175.265 33.9343C175.373 33.3213 175.373 32.6936 175.265 32.0806C175.186 31.6148 174.994 31.1763 174.706 30.8051C174.448 30.4718 174.103 30.2185 173.711 30.0738C173.276 29.9104 172.816 29.8297 172.353 29.8357C171.801 29.8251 171.255 29.9475 170.759 30.1928C170.316 30.4262 169.933 30.7621 169.641 31.1735C169.333 31.6294 169.11 32.1385 168.982 32.6758C168.825 33.3019 168.748 33.9459 168.753 34.5919C168.747 35.2231 168.824 35.8522 168.982 36.4627C169.115 36.9814 169.341 37.4712 169.647 37.9082C169.931 38.3047 170.305 38.6257 170.737 38.8436C171.2 39.0709 171.71 39.1836 172.224 39.1724C172.656 39.18 173.087 39.1149 173.498 38.9797C173.852 38.8567 174.166 38.637 174.404 38.3447C174.659 38.0015 174.827 37.6008 174.896 37.1769C174.979 36.5885 174.979 35.991 174.896 35.4026H176.573C176.666 36.1443 176.615 36.8974 176.422 37.6191C176.265 38.1829 175.971 38.6976 175.567 39.1157C175.16 39.5114 174.666 39.8013 174.125 39.9604C173.498 40.1419 172.848 40.2297 172.196 40.2212C171.486 40.2304 170.781 40.0894 170.128 39.8073C169.513 39.534 168.96 39.1367 168.501 38.6395C168.038 38.1228 167.677 37.5204 167.439 36.8652C167.179 36.1385 167.051 35.3704 167.059 34.5976C167.051 33.81 167.18 33.0272 167.439 32.2847C167.681 31.5906 168.057 30.9525 168.546 30.4082C169.016 29.8933 169.587 29.484 170.223 29.2064C170.908 28.9098 171.647 28.7612 172.392 28.7699C173.083 28.7624 173.772 28.8657 174.432 29.076C175.016 29.2615 175.55 29.5817 175.992 30.0114C176.429 30.451 176.738 31.004 176.886 31.6101C177.064 32.3652 177.077 33.1507 176.925 33.9116L175.265 33.9343Z" fill="black"/>
<path d="M186.109 36.3321C186.281 36.8829 186.302 37.4707 186.171 38.0328C186.051 38.4936 185.805 38.9104 185.461 39.2346C185.103 39.563 184.677 39.8052 184.214 39.9432C183.715 40.1016 183.194 40.18 182.671 40.1757C182.077 40.1859 181.486 40.086 180.927 39.8809C180.431 39.6973 179.979 39.4072 179.603 39.0305C179.233 38.6472 178.948 38.1894 178.764 37.687C178.561 37.1204 178.46 36.5212 178.468 35.9183C178.463 35.3156 178.563 34.7168 178.764 34.1496C178.948 33.6344 179.227 33.1592 179.586 32.7493C179.94 32.352 180.375 32.0368 180.86 31.8253C181.385 31.6184 181.946 31.522 182.509 31.5419C182.996 31.5419 183.479 31.6126 183.946 31.7516C184.395 31.8875 184.809 32.1217 185.159 32.4376C185.526 32.7811 185.812 33.2033 185.997 33.6734C186.225 34.2693 186.333 34.9053 186.316 35.5441V35.8332H180.055V35.9636C180.05 36.4202 180.103 36.8756 180.212 37.3185C180.303 37.7037 180.471 38.0662 180.704 38.3843C180.926 38.6797 181.218 38.9136 181.553 39.0645C181.939 39.2372 182.357 39.3205 182.778 39.3083C183.08 39.3082 183.38 39.2584 183.666 39.1609C183.945 39.0687 184.193 38.8999 184.382 38.6734C184.584 38.4086 184.705 38.0891 184.728 37.755C184.758 37.2768 184.687 36.7978 184.522 36.3491L186.109 36.3321ZM182.56 32.4432C181.151 32.4432 180.324 33.2709 180.117 34.9319H184.762C184.734 34.5275 184.646 34.1299 184.499 33.7527C184.387 33.466 184.217 33.2055 184.002 32.9874C183.812 32.8031 183.585 32.662 183.337 32.5736C183.087 32.4839 182.824 32.4397 182.56 32.4432Z" fill="black"/>
<path d="M188.027 31.6893H189.53V32.6757C189.709 32.5399 189.896 32.4149 190.089 32.3016C190.312 32.159 190.543 32.0321 190.783 31.9218C191.045 31.8022 191.316 31.7018 191.593 31.6213C191.877 31.5421 192.171 31.5021 192.465 31.5023C192.813 31.4612 193.166 31.5063 193.493 31.6337C193.82 31.761 194.112 31.9669 194.343 32.2336C194.719 32.8476 194.899 33.5643 194.858 34.2857V40.0453H193.354V34.8072C193.357 34.4807 193.333 34.1546 193.281 33.8322C193.244 33.6028 193.158 33.3843 193.03 33.1916C192.907 33.0249 192.738 32.9002 192.543 32.8345C192.281 32.7556 192.007 32.7211 191.733 32.7324C191.294 32.7292 190.86 32.8281 190.464 33.0215C190.127 33.1731 189.808 33.3633 189.514 33.5884V40.0453H188.01L188.027 31.6893Z" fill="black"/>
<path d="M197.323 32.6758H195.87L198.805 29.2744V31.6894H202.159V32.6758H198.805V37.3356C198.769 37.8241 198.874 38.3126 199.107 38.7415C199.223 38.8976 199.378 39.0203 199.555 39.0978C199.732 39.1753 199.926 39.2049 200.118 39.1837C200.368 39.1901 200.615 39.1356 200.84 39.025C201.043 38.9204 201.204 38.7455 201.292 38.5318C201.392 38.2683 201.422 37.9832 201.382 37.7041C201.319 37.292 201.199 36.8911 201.024 36.5136H202.449C202.683 37.0096 202.789 37.5578 202.757 38.1066C202.726 38.5304 202.574 38.936 202.321 39.2744C202.071 39.5925 201.743 39.8388 201.371 39.9887C200.989 40.1454 200.581 40.2263 200.169 40.2268C199.401 40.2806 198.64 40.0443 198.033 39.5635C197.769 39.2879 197.567 38.958 197.44 38.5961C197.312 38.2343 197.263 37.8488 197.296 37.466L197.323 32.6758Z" fill="black"/>
<path d="M211.297 36.3321C211.467 36.8829 211.491 37.4699 211.364 38.0328C211.24 38.493 210.992 38.9092 210.648 39.2346C210.291 39.563 209.865 39.8053 209.402 39.9432C208.903 40.1016 208.382 40.18 207.859 40.1757C207.265 40.185 206.674 40.0852 206.115 39.8809C205.618 39.6973 205.166 39.4073 204.79 39.0305C204.421 38.6472 204.135 38.1895 203.952 37.687C203.75 37.1201 203.652 36.5208 203.661 35.9183C203.654 35.316 203.753 34.7171 203.952 34.1496C204.136 33.6344 204.415 33.1593 204.773 32.7494C205.131 32.353 205.567 32.0381 206.053 31.8253C206.575 31.6029 207.136 31.491 207.702 31.4965C208.187 31.4971 208.669 31.5677 209.133 31.7063C209.583 31.841 209.997 32.0753 210.346 32.3922C210.715 32.7337 211.002 33.1565 211.185 33.6281C211.413 34.224 211.521 34.86 211.504 35.4988V35.7879H205.243V35.9183C205.24 36.3747 205.293 36.8297 205.399 37.2732C205.493 37.6575 205.66 38.0196 205.891 38.3389C206.115 38.6328 206.407 38.8665 206.741 39.0192C207.128 39.1918 207.548 39.275 207.971 39.263C208.273 39.2629 208.573 39.2131 208.86 39.1156C209.136 39.0232 209.382 38.8544 209.569 38.6281C209.774 38.3639 209.896 38.0443 209.922 37.7097C209.948 37.2316 209.878 36.7531 209.715 36.3038L211.297 36.3321ZM207.747 32.4432C206.346 32.4432 205.532 33.2728 205.304 34.9319H209.95C209.924 34.5272 209.836 34.1292 209.687 33.7528C209.577 33.4647 209.407 33.2038 209.189 32.9875C208.999 32.8031 208.772 32.662 208.524 32.5736C208.268 32.4812 207.997 32.437 207.725 32.4432H207.747Z" fill="black"/>
<path d="M213.192 31.6893H214.701V32.7494C215.043 32.3944 215.435 32.0926 215.863 31.8537C216.292 31.6311 216.768 31.5182 217.25 31.5249C217.57 31.5212 217.886 31.6012 218.167 31.7574C218.448 31.9192 218.671 32.1673 218.804 32.466C218.961 32.8433 219.027 33.2537 218.994 33.6621C218.945 34.2476 218.805 34.8215 218.58 35.3628H216.998C217.347 34.7444 217.496 34.0306 217.423 33.322C217.367 33.1136 217.238 32.933 217.06 32.8141C216.882 32.6952 216.667 32.646 216.456 32.6757C216.15 32.6784 215.85 32.7604 215.584 32.9138C215.247 33.1223 214.948 33.389 214.701 33.7018V40.0454H213.192V31.6893Z" fill="black"/>
<path d="M53.0863 4.21202L48.8435 0L44.6959 4.21202L48.8435 8.50907L53.0863 4.21202Z" fill="black"/>
<path d="M79.119 26.5307C78.6271 19.66 75.5918 16.5704 74.39 15.4253C71.9417 13.2297 68.9077 11.8174 65.6698 11.3663C59.8955 10.5216 55.2168 13.6906 53.9311 14.6089L53.523 14.8867C46.9885 19.5636 35.982 27.8119 35.982 27.8119L32.5945 32.6758V11.6441L25.8867 15.2269V39.0364C25.8867 50.1475 19.5254 52.0296 16.2609 52.0296C13.0803 52.0296 6.62959 50.1475 6.62959 39.0364V22.8402L0 26.44V39.0534C0 48.7303 7.26683 55.0001 16.2553 55.0001C24.6402 55.0001 31.443 49.7167 32.4157 41.2926H70.5777L72.959 38.6962C73.3188 39.4792 73.8934 40.1405 74.6141 40.601C75.3348 41.0614 76.1711 41.3016 77.0228 41.2926H79.2588V28.9967C79.2308 28.1407 79.1917 27.313 79.119 26.5307ZM72.9702 28.7246L72.5957 36.8142C72.5898 37.3351 72.6808 37.8524 72.864 38.3391H32.5945V35.6407C32.5945 35.6407 50.4821 22.3414 54.4286 19.5239C58.375 16.7064 61.7849 14.9888 64.3897 14.7847C67.9002 14.5523 70.9522 16.372 72.1597 19.2518C72.9031 21.0148 73.0652 23.4922 73.0652 25.6464C73.0317 26.6271 72.9925 27.6532 72.9814 28.7076L72.9702 28.7246Z" fill="black"/>
</g>
<defs>
<clipPath id="clip0">
<rect width="219" height="55" fill="white"/>
</clipPath>
</defs>
</svg>
