[
  {
    "ID": "10",
    "~ID": "10",
    "IBLOCK_ID": "3",
    "~IBLOCK_ID": "3",
    "NAME": "Дворец Культуры и Спорта Профсоюзов",
    "~NAME": "Дворец Культуры и Спорта Профсоюзов",
    "DATE_ACTIVE_FROM": null,
    "~DATE_ACTIVE_FROM": null,
    "DATE_CREATE": "21.04.2021 15:10:49",
    "~DATE_CREATE": "21.04.2021 15:10:49",
    "PREVIEW_TEXT": "Идейные соображения высшего порядка, а также укрепление и развитие структуры позволяет выполнять важные задания по разработке форм развития",
    "~PREVIEW_TEXT": "Идейные соображения высшего порядка, а также укрепление и развитие структуры позволяет выполнять важные задания по разработке форм развития",
    "PREVIEW_PICTURE": "10",
    "~PREVIEW_PICTURE": "10",
    "DETAIL_TEXT": "text-test",
    "~DETAIL_TEXT": "text-test",
    "DETAIL_PICTURE": "12",
    "~DETAIL_PICTURE": "12",
    "PROPERTY_LINK_VALUE": null,
    "~PROPERTY_LINK_VALUE": null,
    "PROPERTY_LINK_VALUE_ID": null,
    "~PROPERTY_LINK_VALUE_ID": null,
    "CODE": "qatar-university4",
    "~CODE": "qatar-university4",
    "SORT": "500",
    "~SORT": "500",
    "DETAIL_TEXT_TYPE": "text",
    "~DETAIL_TEXT_TYPE": "text",
    "PREVIEW_TEXT_TYPE": "text",
    "~PREVIEW_TEXT_TYPE": "text",
    "PREVIEW_PICTURE_SRC": "https://avatars.mds.yandex.net/get-altay/216588/2a0000015b2e95a00b8a9a10066ffe6b8ad4/XXL",
    "DETAIL_PICTURE_SRC": "https://avatars.mds.yandex.net/get-altay/216588/2a0000015b2e95a00b8a9a10066ffe6b8ad4/XXL"
  },
  {
    "ID": "9",
    "~ID": "9",
    "IBLOCK_ID": "3",
    "~IBLOCK_ID": "3",
    "NAME": "Концертный зал «Останкино»",
    "~NAME": "Концертный зал «Останкино»",
    "DATE_ACTIVE_FROM": null,
    "~DATE_ACTIVE_FROM": null,
    "DATE_CREATE": "21.04.2021 15:10:21",
    "~DATE_CREATE": "21.04.2021 15:10:21",
    "PREVIEW_TEXT": "Идейные соображения высшего порядка, а также укрепление и развитие структуры позволяет выполнять важные задания по разработке форм развития",
    "~PREVIEW_TEXT": "Идейные соображения высшего порядка, а также укрепление и развитие структуры позволяет выполнять важные задания по разработке форм развития",
    "PREVIEW_PICTURE": "9",
    "~PREVIEW_PICTURE": "9",
    "DETAIL_TEXT": "",
    "~DETAIL_TEXT": "",
    "DETAIL_PICTURE": null,
    "~DETAIL_PICTURE": null,
    "PROPERTY_LINK_VALUE": null,
    "~PROPERTY_LINK_VALUE": null,
    "PROPERTY_LINK_VALUE_ID": null,
    "~PROPERTY_LINK_VALUE_ID": null,
    "CODE": "qatar-university3",
    "~CODE": "qatar-university3",
    "SORT": "500",
    "~SORT": "500",
    "DETAIL_TEXT_TYPE": "text",
    "~DETAIL_TEXT_TYPE": "text",
    "PREVIEW_TEXT_TYPE": "text",
    "~PREVIEW_TEXT_TYPE": "text",
    "PREVIEW_PICTURE_SRC": "https://s0.rbk.ru/v6_top_pics/media/img/2/79/755917837728792.jpg"
  },
  {
    "ID": "8",
    "~ID": "8",
    "IBLOCK_ID": "3",
    "~IBLOCK_ID": "3",
    "NAME": "Palazzo Concert Hall",
    "~NAME": "Palazzo Concert Hall",
    "DATE_ACTIVE_FROM": null,
    "~DATE_ACTIVE_FROM": null,
    "DATE_CREATE": "21.04.2021 15:10:04",
    "~DATE_CREATE": "21.04.2021 15:10:04",
    "PREVIEW_TEXT": "Идейные соображения высшего порядка, а также укрепление и развитие структуры позволяет выполнять важные задания по разработке форм развития",
    "~PREVIEW_TEXT": "Идейные соображения высшего порядка, а также укрепление и развитие структуры позволяет выполнять важные задания по разработке форм развития",
    "PREVIEW_PICTURE": "8",
    "~PREVIEW_PICTURE": "8",
    "DETAIL_TEXT": "",
    "~DETAIL_TEXT": "",
    "DETAIL_PICTURE": null,
    "~DETAIL_PICTURE": null,
    "PROPERTY_LINK_VALUE": null,
    "~PROPERTY_LINK_VALUE": null,
    "PROPERTY_LINK_VALUE_ID": null,
    "~PROPERTY_LINK_VALUE_ID": null,
    "CODE": "qatar-university2",
    "~CODE": "qatar-university2",
    "SORT": "500",
    "~SORT": "500",
    "DETAIL_TEXT_TYPE": "text",
    "~DETAIL_TEXT_TYPE": "text",
    "PREVIEW_TEXT_TYPE": "text",
    "~PREVIEW_TEXT_TYPE": "text",
    "PREVIEW_PICTURE_SRC": "http://gorodskoyportal.ru/voronezh/pictures/places/29791/29791_big.jpg"
  },
  {
    "ID": "7",
    "~ID": "7",
    "IBLOCK_ID": "3",
    "~IBLOCK_ID": "3",
    "NAME": "Центр Слободкина",
    "~NAME": "Центр Слободкина",
    "DATE_ACTIVE_FROM": null,
    "~DATE_ACTIVE_FROM": null,
    "DATE_CREATE": "21.04.2021 15:09:42",
    "~DATE_CREATE": "21.04.2021 15:09:42",
    "PREVIEW_TEXT": "Идейные соображения высшего порядка, а также укрепление и развитие структуры позволяет выполнять важные задания по разработке форм развития",
    "~PREVIEW_TEXT": "Идейные соображения высшего порядка, а также укрепление и развитие структуры позволяет выполнять важные задания по разработке форм развития",
    "PREVIEW_PICTURE": "7",
    "~PREVIEW_PICTURE": "7",
    "DETAIL_TEXT": "",
    "~DETAIL_TEXT": "",
    "DETAIL_PICTURE": null,
    "~DETAIL_PICTURE": null,
    "PROPERTY_LINK_VALUE": null,
    "~PROPERTY_LINK_VALUE": null,
    "PROPERTY_LINK_VALUE_ID": null,
    "~PROPERTY_LINK_VALUE_ID": null,
    "CODE": "qatar-university",
    "~CODE": "qatar-university",
    "SORT": "500",
    "~SORT": "500",
    "DETAIL_TEXT_TYPE": "text",
    "~DETAIL_TEXT_TYPE": "text",
    "PREVIEW_TEXT_TYPE": "text",
    "~PREVIEW_TEXT_TYPE": "text",
    "PREVIEW_PICTURE_SRC": "https://avatars.mds.yandex.net/get-afishanew/35821/1a29050cc0a8e6427f0dee3952b8a30a/orig"
  }
]