<svg width="154" height="154" viewBox="0 0 154 154" fill="none" xmlns="http://www.w3.org/2000/svg">
<g opacity="0.5">
<path d="M67.9367 131.406C68.9331 131.559 69.8737 131.864 70.7585 132.323C71.625 132.796 72.2891 133.375 72.7508 134.061C72.9091 134.295 72.9519 134.545 72.8792 134.809C72.8064 135.073 72.6448 135.283 72.3944 135.439C72.1123 135.59 71.8483 135.622 71.6025 135.536C71.3385 135.463 71.1261 135.317 70.9653 135.099C70.6937 134.652 70.2688 134.256 69.6906 133.908C69.1101 133.577 68.4481 133.354 67.7048 133.24C66.6134 133.073 65.7869 133.133 65.2252 133.42C64.661 133.722 64.3299 134.141 64.2318 134.676C64.1338 135.211 64.3179 135.701 64.7842 136.144C65.2347 136.585 66.0611 137.003 67.2633 137.397C68.8196 137.911 69.9211 138.54 70.5677 139.287C71.1985 140.03 71.4461 140.845 71.3107 141.731C71.1873 142.538 70.8631 143.176 70.338 143.646C69.8129 144.116 69.174 144.431 68.4211 144.591C67.6525 144.749 66.849 144.763 66.0108 144.635C64.9511 144.473 64.0616 144.151 63.3422 143.669C62.6204 143.202 62.0682 142.632 61.6857 141.959C61.5297 141.708 61.4869 141.459 61.5573 141.211C61.6252 140.978 61.7819 140.8 62.0276 140.676C62.2683 140.583 62.5274 140.582 62.8049 140.673C63.0665 140.762 63.2765 140.923 63.4348 141.158C63.7649 141.645 64.1685 142.023 64.6456 142.29C65.1227 142.557 65.6855 142.74 66.3339 142.839C67.1406 142.963 67.829 142.906 68.3993 142.67C68.9538 142.431 69.2698 142.058 69.3472 141.552C69.4004 141.204 69.3593 140.89 69.2241 140.611C69.073 140.329 68.7759 140.048 68.3329 139.77C67.8874 139.508 67.2497 139.232 66.4198 138.944C65.2651 138.557 64.3755 138.129 63.751 137.661C63.1107 137.191 62.679 136.68 62.4559 136.128C62.2304 135.592 62.1636 135.023 62.2555 134.422C62.3667 133.695 62.6794 133.079 63.1935 132.575C63.6918 132.068 64.3539 131.708 65.1796 131.495C65.9896 131.279 66.9086 131.249 67.9367 131.406Z" fill="#454545"/>
<path d="M51.1027 126.04C51.856 126.394 52.4446 126.891 52.8687 127.531C53.2928 128.172 53.5291 128.893 53.5779 129.693C53.6121 130.487 53.4424 131.282 53.0687 132.079L48.1258 142.617C47.9968 142.892 47.8118 143.079 47.5709 143.178C47.3155 143.271 47.0502 143.252 46.775 143.123C46.5143 143.001 46.3377 142.812 46.2454 142.557C46.1531 142.301 46.1715 142.036 46.3006 141.761L51.2435 131.222C51.5628 130.542 51.6322 129.885 51.4517 129.252C51.2499 128.628 50.8448 128.173 50.2364 127.887L49.6063 127.592C49.3601 127.476 49.198 127.294 49.1202 127.046C49.0424 126.797 49.068 126.535 49.1971 126.26C49.3262 125.985 49.5329 125.808 49.8173 125.729C50.0803 125.658 50.3639 125.694 50.6681 125.836L51.1027 126.04ZM51.6907 138.351C51.937 138.467 52.1058 138.634 52.1972 138.854C52.2886 139.073 52.2799 139.299 52.1712 139.531C52.0625 139.762 51.8945 139.913 51.6672 139.984C51.4332 140.068 51.193 140.053 50.9467 139.937L45.5798 137.42C45.3335 137.304 45.1681 137.13 45.0835 136.896C44.9921 136.676 45.0007 136.45 45.1094 136.219C45.2181 135.987 45.3861 135.836 45.6134 135.766C45.8407 135.696 46.0775 135.718 46.3237 135.834L51.6907 138.351Z" fill="#454545"/>
<path d="M38.9736 117.314C39.8548 118.152 40.4449 119.111 40.7438 120.19C41.0316 121.28 41.0312 122.384 40.7425 123.5C40.4538 124.616 39.874 125.633 39.0031 126.549C38.1211 127.476 37.1241 128.107 36.0122 128.441C34.8886 128.763 33.7631 128.786 32.6357 128.509C31.4972 128.243 30.47 127.675 29.5539 126.804C28.6494 125.944 28.0417 124.958 27.7307 123.846C27.397 122.734 27.3687 121.614 27.6458 120.486C27.9113 119.348 28.4793 118.309 29.3496 117.371L30.2056 117.655C31.0214 116.797 31.9572 116.207 33.0129 115.886C34.046 115.566 35.0917 115.522 36.1502 115.756C37.1859 115.99 38.1271 116.51 38.9736 117.314ZM37.4915 118.455C36.8538 117.849 36.1364 117.454 35.3396 117.27C34.5427 117.087 33.7458 117.124 32.9488 117.382C32.1518 117.64 31.4391 118.099 30.8107 118.76C30.1713 119.432 29.7484 120.167 29.5422 120.965C29.325 121.774 29.3282 122.572 29.5518 123.358C29.7643 124.156 30.1895 124.859 30.8272 125.465C31.465 126.071 32.1878 126.46 32.9957 126.632C33.7925 126.816 34.5953 126.784 35.4039 126.538C36.2015 126.302 36.92 125.849 37.5594 125.176C38.1878 124.515 38.6048 123.775 38.8105 122.955C39.0161 122.135 39.0071 121.331 38.7835 120.545C38.56 119.758 38.1293 119.062 37.4915 118.455ZM34.6121 113.333C34.8324 113.543 34.9515 113.777 34.9694 114.037C34.9762 114.309 34.8749 114.555 34.6654 114.775L31.9369 117.645L30.1512 118.861L29.3496 117.371L33.1696 113.353C33.3791 113.133 33.6253 113.024 33.9083 113.029C34.1688 113.033 34.4033 113.135 34.6121 113.333Z" fill="#454545"/>
<path d="M26.9689 101.443C27.1515 101.817 27.0835 102.206 26.7648 102.611L19.0759 112.189C18.9238 112.388 18.7295 112.501 18.4931 112.527C18.2497 112.539 18.0144 112.458 17.787 112.284C17.5667 112.125 17.4505 111.923 17.4384 111.68C17.405 111.429 17.4608 111.197 17.6059 110.984L25.1198 101.759L25.5727 102.686L13.7091 103.004C13.4443 103.009 13.2198 102.914 13.0355 102.719C12.8513 102.524 12.7569 102.294 12.7522 102.029C12.7549 101.743 12.8465 101.512 13.027 101.334C13.1932 101.164 13.398 101.073 13.6414 101.061L25.9117 100.864C26.4199 100.848 26.7723 101.041 26.9689 101.443Z" fill="#454545"/>
<path d="M14.0929 88.6393C13.1221 88.7451 12.2239 88.6225 11.3982 88.2714C10.5543 87.9067 9.85654 87.3757 9.30477 86.6785C8.753 85.9813 8.41059 85.1655 8.27754 84.2309C8.16254 83.423 8.19452 82.7963 8.37349 82.3506C8.55021 81.8891 8.85239 81.6844 9.28002 81.7367C9.52439 81.7504 9.70537 81.8297 9.82296 81.9745C9.92246 82.1058 9.98687 82.2744 10.0162 82.4804C10.0432 82.6704 10.0669 82.8933 10.0871 83.149C10.0912 84.0858 10.2639 84.9016 10.6052 85.5964C10.9307 86.2935 11.3853 86.8187 11.9689 87.172C12.5525 87.5252 13.2087 87.65 13.9373 87.5463L14.0929 88.6393ZM22.1342 87.3975C22.1793 87.7143 22.1271 87.9723 21.9777 88.1713C21.8282 88.3704 21.5951 88.4924 21.2783 88.5375L10.2772 90.1037C9.96041 90.1488 9.70248 90.0966 9.50343 89.9472C9.30438 89.7977 9.18231 89.5646 9.13721 89.2478C9.09211 88.931 9.14428 88.6731 9.29371 88.474C9.44315 88.275 9.67627 88.1529 9.99308 88.1078L20.9942 86.5417C21.311 86.4966 21.5689 86.5487 21.7679 86.6982C21.967 86.8476 22.0891 87.0807 22.1342 87.3975Z" fill="#454545"/>
<path d="M22.3061 66.2832C22.0517 67.554 21.5432 68.6271 20.7806 69.5024C20.0211 70.3621 19.0906 70.9754 17.9891 71.3423C16.8877 71.7093 15.7094 71.7672 14.4543 71.5159C13.1835 71.2616 12.1105 70.7531 11.2351 69.9904C10.3598 69.2278 9.73706 68.3036 9.36697 67.2178C9.00001 66.1164 8.94372 64.9303 9.19809 63.6595C9.44931 62.4044 9.95468 61.347 10.7142 60.4873C11.4737 59.6277 12.4041 59.0144 13.5056 58.6474C14.607 58.2805 15.7947 58.2163 17.0687 58.455C18.3238 58.7062 19.389 59.2132 20.2643 59.9758C21.1397 60.7384 21.7608 61.6705 22.1278 62.7719C22.4979 63.8577 22.5573 65.0281 22.3061 66.2832ZM20.494 65.9205C20.6699 65.0419 20.6229 64.2167 20.3532 63.4447C20.0835 62.6728 19.6333 62.0279 19.0027 61.51C18.3595 60.9733 17.5829 60.6139 16.673 60.4318C15.763 60.2497 14.908 60.2825 14.1078 60.5302C13.3107 60.7623 12.6391 61.1827 12.0931 61.7913C11.547 62.4 11.186 63.1436 11.0101 64.0222C10.8343 64.9008 10.8812 65.726 11.151 66.498C11.4207 67.2699 11.8756 67.9321 12.5156 68.4845C13.1588 69.0211 13.9353 69.3805 14.8453 69.5627C15.7552 69.7448 16.6103 69.712 17.4105 69.4642C18.1982 69.1976 18.865 68.76 19.4111 68.1514C19.9572 67.5427 20.3182 66.7991 20.494 65.9205Z" fill="#454545"/>
<path d="M32.0345 53.9244C31.8679 54.1787 31.6517 54.3336 31.3859 54.3889C31.12 54.4443 30.86 54.3887 30.6057 54.2221L21.2305 48.0801C20.1953 47.3828 19.4207 46.5215 18.9065 45.496C18.3878 44.4484 18.1593 43.3519 18.2211 42.2065C18.2696 41.0523 18.6357 39.9532 19.3196 38.9093C20.0211 37.8386 20.8912 37.0506 21.93 36.5452C22.9642 36.0177 24.0607 35.7892 25.2195 35.8598C26.3871 35.917 27.5063 36.2963 28.577 36.9978C29.6343 37.6905 30.4311 38.5472 30.9673 39.568C31.5124 40.5754 31.7695 41.6429 31.7386 42.7703C31.6943 43.889 31.339 44.9569 30.6726 45.974C30.1115 46.8306 29.4179 47.4952 28.5918 47.9678C27.7523 48.4316 26.8824 48.6937 25.982 48.7542L31.7236 52.5157C31.9779 52.6823 32.1327 52.8985 32.1881 53.1643C32.2523 53.4168 32.2011 53.6701 32.0345 53.9244ZM28.9558 45.2223C29.4468 44.4728 29.7113 43.6897 29.7491 42.8728C29.7869 42.056 29.6076 41.2786 29.2111 40.5407C28.8235 39.7894 28.2482 39.1638 27.4853 38.664C26.7091 38.1555 25.9058 37.8779 25.0756 37.8313C24.2408 37.7626 23.4565 37.9087 22.7227 38.2696C21.9755 38.6217 21.3565 39.1725 20.8654 39.922C20.392 40.6447 20.1386 41.4256 20.1054 42.2646C20.0676 43.0814 20.2469 43.8588 20.6434 44.5967C21.0264 45.3259 21.6061 45.9448 22.3823 46.4533C23.1452 46.9531 23.944 47.2373 24.7789 47.3061C25.6137 47.3748 26.398 47.2287 27.1318 46.8678C27.8744 46.4935 28.4824 45.945 28.9558 45.2223Z" fill="#454545"/>
<path d="M44.6996 31.6059C43.6362 32.3467 42.5263 32.7688 41.3699 32.8723C40.2267 32.9666 39.1307 32.7648 38.0819 32.2669C37.0332 31.769 36.143 30.9949 35.4114 29.9445C34.6707 28.8811 34.2485 27.7712 34.1451 26.6148C34.0416 25.4585 34.2322 24.3605 34.717 23.3209C35.2149 22.2721 35.9956 21.3774 37.0591 20.6366C38.1094 19.905 39.2062 19.4921 40.3494 19.3977C41.4926 19.3034 42.5886 19.5052 43.6374 20.0031C44.6861 20.501 45.5874 21.2771 46.3413 22.3314C47.0729 23.3818 47.4904 24.4851 47.5939 25.6414C47.6974 26.7978 47.5002 27.9003 47.0023 28.9491C46.5175 29.9887 45.7499 30.8743 44.6996 31.6059ZM43.6434 30.0895C44.3786 29.5774 44.9162 28.9495 45.2561 28.2058C45.596 27.462 45.7177 26.685 45.6213 25.8748C45.5289 25.0422 45.2175 24.2452 44.687 23.4837C44.1566 22.7222 43.517 22.1538 42.7681 21.7785C42.0324 21.394 41.2567 21.2323 40.4413 21.2933C39.6259 21.3544 38.8505 21.6409 38.1153 22.153C37.3801 22.6651 36.8425 23.2931 36.5026 24.0368C36.1627 24.7805 36.0324 25.5732 36.1117 26.4149C36.2041 27.2475 36.5156 28.0445 37.046 28.806C37.5764 29.5675 38.216 30.1359 38.9649 30.5112C39.7178 30.8642 40.5019 31.0103 41.3174 30.9492C42.1328 30.8882 42.9081 30.6016 43.6434 30.0895Z" fill="#454545"/>
<path d="M61.0594 23.5559C60.4352 23.7578 59.8178 23.7726 59.2071 23.6002C58.6067 23.4076 58.0709 23.0512 57.5999 22.531C57.1289 22.0107 56.7654 21.3547 56.5093 20.5631L52.3575 7.73001C52.2639 7.44077 52.2738 7.18533 52.3871 6.9637C52.5107 6.72192 52.7171 6.55425 53.0063 6.46067C53.2955 6.3671 53.5534 6.38456 53.78 6.51307C54.0169 6.62142 54.1821 6.82022 54.2756 7.10946L58.4274 19.9426C58.6293 20.5667 58.9161 21.0373 59.2877 21.3543C59.6745 21.6664 60.0583 21.7609 60.4388 21.6377L61.0097 21.4531C61.2685 21.3693 61.5036 21.3942 61.7149 21.5276C61.9213 21.6458 62.0713 21.8495 62.1649 22.1388C62.2584 22.428 62.2206 22.7009 62.0513 22.9575C61.8924 23.1939 61.6302 23.3712 61.2649 23.4894L61.0594 23.5559Z" fill="#454545"/>
<path d="M86.7595 21.673C86.4556 21.6625 86.2109 21.5659 86.0251 21.3833C85.8399 21.1848 85.7526 20.9336 85.7631 20.6298L86.0025 13.7459C86.0409 12.6426 85.7906 11.7854 85.2515 11.1743C84.7129 10.5472 84.0039 10.2183 83.1245 10.1877C82.1811 10.1549 81.3944 10.4478 80.7645 11.0662C80.1512 11.6693 79.8344 12.4908 79.8143 13.5307L78.0394 13.469C78.0926 12.3982 78.357 11.4708 78.8325 10.6869C79.3086 9.88693 79.9462 9.27672 80.7453 8.85624C81.5604 8.43632 82.4717 8.24387 83.479 8.27891C84.4065 8.31117 85.2225 8.55568 85.927 9.01244C86.6316 9.46921 87.1695 10.1123 87.5409 10.9417C87.9129 11.7551 88.0797 12.7135 88.0413 13.8168L87.8019 20.7007C87.7913 21.0045 87.6868 21.249 87.4882 21.4342C87.3062 21.604 87.0633 21.6836 86.7595 21.673ZM70.2335 21.0983C69.9296 21.0877 69.6848 20.9911 69.4991 20.8086C69.3139 20.61 69.2265 20.3588 69.2371 20.055L69.6225 8.9737C69.6331 8.66988 69.7376 8.42537 69.9362 8.24016C70.1348 8.05495 70.386 7.96762 70.6898 7.97819C70.9936 7.98876 71.2301 8.09304 71.3993 8.29104C71.5845 8.4896 71.6719 8.74079 71.6613 9.04461L71.2759 20.1259C71.2653 20.4297 71.1608 20.6742 70.9622 20.8594C70.7802 21.0292 70.5373 21.1088 70.2335 21.0983ZM78.5085 21.3861C78.2206 21.3761 77.9758 21.2795 77.7741 21.0964C77.5889 20.8978 77.5015 20.6466 77.5121 20.3428L77.7515 13.459C77.7899 12.3556 77.5395 11.4984 77.0005 10.8873C76.4619 10.2602 75.7529 9.93136 74.8735 9.90077C73.93 9.86796 73.1437 10.1528 72.5143 10.7553C71.885 11.3578 71.5531 12.1547 71.5186 13.1461L70.1515 13.0986C70.2036 12.0598 70.4512 11.1558 70.8942 10.3868C71.3537 9.60225 71.9591 8.99893 72.7102 8.57678C73.4613 8.15463 74.3006 7.95969 75.228 7.99194C76.1555 8.0242 76.9715 8.26871 77.676 8.72548C78.3806 9.18224 78.9185 9.82533 79.2899 10.6547C79.6779 11.4687 79.8527 12.4274 79.8143 13.5307L79.5749 20.4145C79.5643 20.7184 79.4597 20.9629 79.2612 21.1481C79.0632 21.3173 78.8123 21.3966 78.5085 21.3861Z" fill="#E6AB49"/>
<path d="M100.99 27.159C99.9913 26.6524 99.1972 25.9896 98.608 25.1705C98.0402 24.3444 97.7343 23.4089 97.6901 22.3639C97.646 21.319 97.9243 20.2043 98.5249 19.0199L101.293 13.5616C101.423 13.3048 101.617 13.1342 101.875 13.0498C102.134 12.9654 102.391 12.9883 102.648 13.1185C102.919 13.256 103.097 13.4538 103.181 13.7119C103.266 13.97 103.243 14.2275 103.112 14.4843L100.344 19.9426C99.9101 20.7987 99.7089 21.5847 99.7406 22.3004C99.7865 23.0234 100.019 23.6616 100.438 24.2149C100.857 24.7683 101.416 25.2223 102.115 25.5769C102.786 25.917 103.451 26.0925 104.109 26.1034C104.781 26.1216 105.39 25.9819 105.936 25.6845C106.481 25.387 106.899 24.9529 107.188 24.3821L108.43 25.0117C107.945 25.8963 107.301 26.5831 106.497 27.0723C105.7 27.5472 104.818 27.7997 103.852 27.83C102.886 27.8603 101.932 27.6366 100.99 27.159ZM105.786 29.4295C105.515 29.292 105.337 29.0943 105.253 28.8362C105.168 28.5781 105.195 28.3135 105.332 28.0424L110.347 18.1533C110.485 17.8822 110.679 17.7116 110.93 17.6414C111.188 17.557 111.452 17.5836 111.724 17.7211C111.995 17.8586 112.172 18.0564 112.257 18.3145C112.348 18.5583 112.326 18.8157 112.188 19.0869L107.173 28.9759C107.035 29.247 106.838 29.4248 106.58 29.5092C106.322 29.5936 106.057 29.567 105.786 29.4295Z" fill="#E6AB49"/>
<path d="M117.151 39.1583C116.461 38.4233 115.91 37.6022 115.497 36.695C115.107 35.7884 114.942 34.9229 115.002 34.0985C115.022 33.8162 115.142 33.5936 115.362 33.4307C115.582 33.2679 115.839 33.2024 116.132 33.2344C116.448 33.2896 116.675 33.427 116.816 33.6465C116.978 33.8667 117.056 34.1125 117.047 34.3839C116.985 34.9026 117.075 35.4771 117.315 36.1072C117.567 36.7264 117.951 37.3102 118.465 37.8585C119.221 38.6634 119.908 39.1265 120.527 39.248C121.157 39.3585 121.676 39.2334 122.084 38.8727C122.491 38.5121 122.649 38.0133 122.555 37.3765C122.473 36.7513 122.081 35.9126 121.379 34.8603C120.471 33.496 119.993 32.3206 119.945 31.3343C119.908 30.3597 120.216 29.5658 120.869 28.9525C121.464 28.394 122.113 28.092 122.816 28.0463C123.52 28.0006 124.217 28.1471 124.908 28.4859C125.61 28.8363 126.251 29.3207 126.832 29.939C127.565 30.7206 128.066 31.5231 128.334 32.3466C128.614 33.1591 128.697 33.9484 128.582 34.7145C128.55 35.0078 128.43 35.2304 128.222 35.3822C128.025 35.5232 127.791 35.5667 127.521 35.5129C127.275 35.4372 127.07 35.2779 126.908 35.0351C126.757 34.8039 126.692 34.5472 126.712 34.2648C126.753 33.6775 126.668 33.1315 126.458 32.6268C126.248 32.1221 125.918 31.6306 125.469 31.1524C124.91 30.5574 124.334 30.177 123.739 30.011C123.155 29.8568 122.677 29.9548 122.304 30.3052C122.047 30.5462 121.885 30.8184 121.819 31.1219C121.764 31.4371 121.825 31.8409 122.002 32.3332C122.19 32.8146 122.522 33.425 122.997 34.1644C123.666 35.1817 124.102 36.067 124.305 36.8205C124.518 37.5857 124.543 38.2543 124.377 38.8263C124.224 39.3875 123.925 39.8761 123.482 40.2922C122.945 40.7959 122.319 41.0874 121.604 41.1667C120.899 41.2576 120.156 41.1323 119.374 40.7906C118.604 40.4606 117.863 39.9165 117.151 39.1583Z" fill="#E6AB49"/>
<path d="M125.442 50.5537C125.301 50.2846 125.27 50.0205 125.351 49.7612C125.431 49.5018 125.606 49.3014 125.875 49.1598L135.666 44.0079C135.949 43.8589 136.214 43.8283 136.459 43.9163C136.718 43.9968 136.918 44.1716 137.06 44.4406C137.202 44.7096 137.228 44.9667 137.14 45.2119C137.074 45.4638 136.899 45.6642 136.616 45.8132L126.825 50.9652C126.556 51.1067 126.292 51.1373 126.032 51.0567C125.78 50.9904 125.584 50.8227 125.442 50.5537ZM139.152 43.313C138.973 42.9732 138.94 42.6196 139.054 42.2522C139.168 41.8848 139.402 41.608 139.756 41.4217C140.11 41.2355 140.464 41.2031 140.817 41.3246C141.192 41.4528 141.469 41.6868 141.648 42.0267C141.819 42.3523 141.848 42.6989 141.734 43.0662C141.641 43.4403 141.418 43.7205 141.064 43.9067C140.71 44.093 140.346 44.122 139.971 43.9938C139.603 43.8797 139.33 43.6528 139.152 43.313Z" fill="#E6AB49"/>
<path d="M130.948 66.4556C130.7 65.2162 130.761 64.0536 131.131 62.9679C131.517 61.879 132.148 60.9532 133.023 60.1906C133.901 59.4436 134.96 58.9461 136.2 58.698C137.455 58.4468 138.63 58.489 139.725 58.8245C140.823 59.1758 141.748 59.7577 142.498 60.5703C143.267 61.3955 143.774 62.4199 144.018 63.6436C144.207 64.5849 144.193 65.4933 143.977 66.3688C143.776 67.2412 143.368 68.0571 142.753 68.8166C142.571 69.0488 142.356 69.1571 142.108 69.1414C141.879 69.1383 141.655 69.0364 141.435 68.8356C141.256 68.6756 141.167 68.4732 141.167 68.2285C141.167 67.9837 141.252 67.7546 141.421 67.5412C142.205 66.4868 142.467 65.3085 142.206 64.0063C142.037 63.1591 141.682 62.4469 141.142 61.8696C140.606 61.308 139.948 60.9175 139.17 60.6979C138.392 60.4784 137.532 60.4628 136.591 60.6513C135.681 60.8334 134.903 61.185 134.256 61.706C133.626 62.2238 133.174 62.8609 132.901 63.6171C132.631 64.3891 132.584 65.2144 132.76 66.0929C132.88 66.6891 133.065 67.2068 133.316 67.6461C133.57 68.101 133.892 68.4854 134.281 68.7991C134.494 68.9685 134.631 69.1615 134.691 69.378C134.769 69.607 134.749 69.8314 134.629 70.051C134.482 70.2927 134.294 70.4527 134.065 70.5312C133.836 70.6097 133.608 70.5737 133.382 70.4231C132.102 69.4882 131.29 68.1657 130.948 66.4556Z" fill="#E6AB49"/>
<path d="M131.39 84.4139C131.523 83.4147 131.811 82.4685 132.253 81.5752C132.709 80.6998 133.275 80.0248 133.952 79.5502C134.183 79.3874 134.432 79.3398 134.697 79.4075C134.963 79.4753 135.176 79.6328 135.336 79.8803C135.493 80.1594 135.53 80.4227 135.449 80.6701C135.381 80.9355 135.239 81.1506 135.024 81.3155C134.583 81.5956 134.194 82.028 133.858 82.6126C133.537 83.1994 133.327 83.8655 133.228 84.6109C133.082 85.7051 133.157 86.5304 133.454 87.0866C133.767 87.6449 134.192 87.968 134.729 88.0558C135.266 88.1437 135.752 87.9503 136.187 87.4756C136.619 87.0168 137.021 86.1827 137.393 84.9732C137.876 83.4074 138.485 82.2941 139.219 81.6334C139.95 80.9886 140.76 80.7254 141.648 80.844C142.457 80.952 143.102 81.264 143.581 81.7801C144.061 82.2961 144.389 82.929 144.563 83.6786C144.735 84.4441 144.765 85.2472 144.653 86.0877C144.511 87.1503 144.206 88.0458 143.737 88.7742C143.285 89.5047 142.725 90.0676 142.059 90.463C141.812 90.6236 141.563 90.6712 141.314 90.6056C141.08 90.5421 140.899 90.3888 140.77 90.1455C140.673 89.9066 140.667 89.6475 140.752 89.3684C140.836 89.1052 140.994 88.8921 141.225 88.7294C141.706 88.39 142.076 87.9793 142.334 87.4973C142.592 87.0152 142.764 86.449 142.851 85.7988C142.959 84.9899 142.89 84.3027 142.642 83.737C142.393 83.1871 142.014 82.8783 141.507 82.8106C141.158 82.764 140.845 82.811 140.568 82.9516C140.289 83.108 140.014 83.4104 139.745 83.8586C139.491 84.309 139.227 84.9518 138.955 85.787C138.59 86.9489 138.179 87.8465 137.723 88.4798C137.265 89.1289 136.763 89.5702 136.215 89.8038C135.683 90.0395 135.116 90.1171 134.513 90.0367C133.784 89.9393 133.162 89.6384 132.648 89.1339C132.132 88.6454 131.76 87.9903 131.53 87.1687C131.299 86.363 131.252 85.4447 131.39 84.4139Z" fill="#FF6C77"/>
<path d="M126.345 101.347C126.684 100.587 127.169 99.9889 127.802 99.5528C128.434 99.1166 129.15 98.8665 129.95 98.8026C130.743 98.7533 131.541 98.9078 132.345 99.2663L142.975 104.008C143.253 104.132 143.443 104.313 143.547 104.552C143.644 104.805 143.631 105.071 143.507 105.349C143.39 105.612 143.204 105.792 142.951 105.889C142.697 105.986 142.432 105.973 142.154 105.849L131.523 101.107C130.837 100.801 130.179 100.744 129.55 100.937C128.929 101.15 128.482 101.564 128.208 102.178L127.924 102.813C127.814 103.062 127.635 103.227 127.388 103.31C127.141 103.392 126.878 103.372 126.601 103.248C126.323 103.124 126.142 102.921 126.058 102.638C125.982 102.376 126.012 102.092 126.149 101.785L126.345 101.347ZM138.642 100.525C138.753 100.276 138.917 100.104 139.135 100.009C139.353 99.9131 139.579 99.9175 139.812 100.022C140.046 100.126 140.2 100.291 140.275 100.517C140.364 100.749 140.353 100.99 140.242 101.238L137.827 106.652C137.717 106.901 137.545 107.069 137.313 107.158C137.095 107.254 136.869 107.25 136.635 107.145C136.401 107.041 136.247 106.876 136.173 106.65C136.098 106.424 136.117 106.187 136.227 105.939L138.642 100.525Z" fill="#FF6C77"/>
<path d="M117.657 113.853C118.532 112.896 119.522 112.241 120.628 111.886C121.722 111.543 122.836 111.5 123.968 111.755C125.101 112.011 126.139 112.571 127.084 113.435C128.04 114.31 128.695 115.3 129.05 116.405C129.405 117.511 129.46 118.624 129.215 119.745C128.959 120.877 128.394 121.921 127.519 122.877C126.655 123.822 125.675 124.465 124.581 124.808C123.486 125.151 122.373 125.195 121.24 124.939C120.108 124.684 119.058 124.124 118.091 123.261C117.147 122.397 116.497 121.412 116.143 120.307C115.788 119.201 115.738 118.082 115.994 116.95C116.239 115.829 116.793 114.797 117.657 113.853ZM119.021 115.1C118.416 115.761 118.029 116.492 117.861 117.292C117.692 118.092 117.744 118.877 118.016 119.646C118.289 120.438 118.768 121.147 119.452 121.774C120.137 122.4 120.886 122.815 121.699 123.016C122.501 123.23 123.293 123.218 124.075 122.979C124.857 122.741 125.551 122.291 126.156 121.63C126.761 120.969 127.147 120.238 127.316 119.438C127.484 118.638 127.437 117.836 127.175 117.032C126.902 116.24 126.423 115.531 125.739 114.904C125.054 114.278 124.305 113.864 123.492 113.662C122.68 113.483 121.883 113.512 121.101 113.751C120.319 113.989 119.625 114.439 119.021 115.1Z" fill="#FF6C77"/>
<path d="M109.147 131.465C109.579 132.341 109.771 133.227 109.724 134.123C109.67 135.041 109.41 135.878 108.944 136.635C108.477 137.393 107.828 137.994 106.995 138.438C106.276 138.823 105.676 139.007 105.196 138.992C104.702 138.984 104.406 138.77 104.309 138.35C104.238 138.116 104.25 137.919 104.346 137.759C104.436 137.62 104.572 137.502 104.755 137.404C104.925 137.313 105.126 137.215 105.359 137.108C106.238 136.784 106.946 136.342 107.482 135.784C108.025 135.239 108.363 134.633 108.495 133.963C108.628 133.294 108.52 132.635 108.173 131.986L109.147 131.465ZM105.228 124.335C105.511 124.184 105.771 124.145 106.009 124.217C106.247 124.289 106.442 124.467 106.592 124.749L111.829 134.55C111.98 134.832 112.019 135.092 111.947 135.33C111.875 135.568 111.697 135.763 111.415 135.914C111.133 136.064 110.873 136.104 110.634 136.031C110.396 135.959 110.202 135.782 110.051 135.5L104.814 125.699C104.664 125.417 104.624 125.156 104.697 124.918C104.769 124.68 104.946 124.486 105.228 124.335Z" fill="#FF6C77"/>
<path d="M85.2454 131.416C86.5387 131.195 87.7293 131.276 88.8171 131.658C89.9077 132.056 90.8217 132.704 91.5592 133.6C92.2966 134.497 92.7744 135.584 92.9926 136.862C93.2134 138.155 93.1392 139.336 92.77 140.406C92.4034 141.491 91.8033 142.397 90.9698 143.123C90.1204 143.853 89.0806 144.322 87.8504 144.533C86.636 144.74 85.5401 144.643 84.5626 144.242C83.5878 143.856 82.7817 143.223 82.1443 142.342C81.4911 141.463 81.0594 140.409 80.8493 139.179C80.8036 138.91 80.8526 138.675 80.9965 138.472C81.143 138.284 81.3504 138.168 81.6185 138.122L91.5073 136.433L91.7861 138.066L81.8026 139.771L82.675 138.891C82.8231 139.759 83.1221 140.511 83.5718 141.148C84.0215 141.786 84.5875 142.249 85.27 142.538C85.9366 142.83 86.6958 142.904 87.5475 142.758C88.4464 142.605 89.1908 142.258 89.7805 141.72C90.3729 141.196 90.7885 140.541 91.0274 139.754C91.2662 138.966 91.3062 138.107 91.1473 137.177C90.9884 136.246 90.642 135.453 90.108 134.798C89.5768 134.158 88.9199 133.686 88.1375 133.381C87.3419 133.095 86.4789 133.031 85.5484 133.19C85.0121 133.282 84.4842 133.469 83.9645 133.753C83.429 134.039 83.0199 134.352 82.7372 134.693C82.5749 134.883 82.3754 134.998 82.1388 135.038C81.8892 135.097 81.6655 135.071 81.4678 134.958C81.212 134.791 81.0625 134.581 81.0194 134.329C80.9632 134.095 81.0229 133.874 81.1983 133.665C81.6591 133.132 82.2675 132.655 83.0233 132.234C83.7634 131.815 84.5041 131.542 85.2454 131.416Z" fill="#FF6C77"/>
</g>
</svg>
